{
  "project_info": {
    "project_number": "775053158306",
    "project_id": "salemanager-777dd",
    "storage_bucket": "salemanager-777dd.appspot.com"
  },
  "client": [
    {
      "client_info": {
        "mobilesdk_app_id": "1:775053158306:android:a807f9f1c3528e1c73b4fb",
        "android_client_info": {
          "package_name": "com.example.salemanager"
        }
      },
      "oauth_client": [
        {
          "client_id": "775053158306-kc9206hlarnsj6o95jnktgm3plukelc2.apps.googleusercontent.com",
          "client_type": 1,
          "android_info": {
            "package_name": "com.example.salemanager",
            "certificate_hash": "c1403003046fc336d67680e666a468a03ca3cc55"
          }
        },
        {
          "client_id": "775053158306-9tj7267r902kdk5hsu69100dsj87jpd8.apps.googleusercontent.com",
          "client_type": 3
        }
      ],
      "api_key": [
        {
          "current_key": "AIzaSyC9fqN3p6m6z2lczDnU8pOnjdsCKdjGb_A"
        }
      ],
      "services": {
        "appinvite_service": {
          "other_platform_oauth_client": [
            {
              "client_id": "775053158306-9tj7267r902kdk5hsu69100dsj87jpd8.apps.googleusercontent.com",
              "client_type": 3
            }
          ]
        }
      }
    }
  ],
  "configuration_version": "1"
}